{
    "name": "Menu",
    "parent": "null",
    "children": [
      {
        "name": "Bacon & eggs",
        "parent": "Menu",
        "children": [
          {
            "name": "Bacon",
            "parent": "Bacon & eggs",
            "children": [
            {
                "name": "Meat",
                "parent": "Bacon",
                    "children": [
                    {
                        "name": "Pork",
                        "parent": "Meat"
                    }]
            }]
          },
          {
            "name": "Ham Eggs",
            "parent": "Bacon & eggs",
            "children": [
            {
                "name": "Eggs",
                "parent": "Ham Eggs"
            }]
          }
        ]
      },
      {
        "name": "Hamburger",
        "parent": "Menu",
        "children": [
          {
            "name": "Meat",
            "parent": "Hamburger",
            "children": [
            {
                "name": "Pork",
                "parent": "Meat"
            }]
          },
          {
            "name": "Bread",
            "parent": "Hamburger",
            "children": [
            {
                "name": "Flour",
                "parent": "Bread"
            },
            {
                "name": "Water",
                "parent": "Bread"
            }
            ]
          },
          {
            "name": "Cheese",
            "parent": "Hamburger",
            "children": [
            {
                "name": "Milk",
                "parent": "Cheese"
            }]
          }
        ]
      },
      {
        "name": "English breakfast",
        "parent": "Menu",
        "children": [
          {
            "name": "Fried eggs",
            "parent": "English breakfast",
            "children": [
            {
                "name": "Eggs",
                "parent": "Fried eggs"
            }]
          },
          {
            "name": "Mushrooms",
            "parent": "English breakfast"
          },
          {
            "name": "Sausages",
            "parent": "English breakfast",
            "children": [
            {
                "name": "Meat",
                "parent": "Sausages",
                    "children": [
                    {
                        "name": "Pork",
                        "parent": "Meat"
                    }]
            }]
          },
          {
            "name": "Bread",
            "parent": "English breakfast",
            "children": [
            {
                "name": "Flour",
                "parent": "Bread"
            },
            {
                "name": "Water",
                "parent": "Bread"
            }
            ]
          }
        ]
      }
    ]
   }